﻿1	5132409032	高剑飞	2013-2014	1	大学基础英语（1）	EN025	78	3.0
2	5132409032	高剑飞	2013-2014	1	体育（1）	PE001	82	1.0
3	5132409032	高剑飞	2013-2014	1	线性代数（E类）	MA225	83	5.0
4	5132409032	高剑飞	2013-2014	1	程序设计	CS122	86	5.0
5	5132409032	高剑飞	2013-2014	1	学子讲坛（1）	CS037	87	2.0
6	5132409032	高剑飞	2013-2014	1	数学分析（1）	MA122	87	5.0
7	5132409032	高剑飞	2013-2014	1	计算机科学导论	CS120	88	4.0
8	5132409032	高剑飞	2013-2014	1	形势与政策	TH009	A	1.0
9	5132409032	高剑飞	2013-2014	1	中国近现代史纲要	TH021	99	2.0
10	5132409032	高剑飞	2013-2014	2	大学基础英语（2）	EN026	75	3.0
11	5132409032	高剑飞	2013-2014	2	军事理论	TH004	78	1.0
12	5132409032	高剑飞	2013-2014	2	数学分析（A类）（2）	MA123	81	5.0
13	5132409032	高剑飞	2013-2014	2	数据结构	MS105	83	3.0
14	5132409032	高剑飞	2013-2014	2	形势与政策	TH009	B+	1.0
15	5132409032	高剑飞	2013-2014	2	体育（2）	PE002	85	1.0
16	5132409032	高剑飞	2013-2014	2	物理学实验（1）	PH111	85	1.5
17	5132409032	高剑飞	2013-2014	2	思想道德修养与法律基础	TH000	88	3.0
18	5132409032	高剑飞	2013-2014	2	编程综合实践	MS106	89	3.0
19	5132409032	高剑飞	2013-2014	2	物理学引论（A类）（1）	PH114	99	5.0
20	5132409032	高剑飞	2014-2015	1	体育（3）	PE003	79	1.0
21	5132409032	高剑飞	2014-2015	1	算法设计与分析	CS217	79.5	3.0
22	5132409032	高剑飞	2014-2015	1	物理学实验（2）	PH117	84	1.5
23	5132409032	高剑飞	2014-2015	1	代数结构	MA150	89	3.0
24	5132409032	高剑飞	2014-2015	1	科学计算	MA235	90	3.0
25	5132409032	高剑飞	2014-2015	1	毛泽东思想和中国特色社会主义理论体系概论	TH012	90	6.0
26	5132409032	高剑飞	2014-2015	1	形势与政策	TH009	A	1.0
27	5132409032	高剑飞	2014-2015	1	物理学引论（A类）（2）	PH116	95	5.0
28	5132409032	高剑飞	2014-2015	2	时空数据分析	CS224	72	2.0
29	5132409032	高剑飞	2014-2015	2	计算机系统（1）	MS108	76	4.0
30	5132409032	高剑飞	2014-2015	2	马克思主义基本原理	TH007	79.3	3.0
31	5132409032	高剑飞	2014-2015	2	数理逻辑	CS301	80	3.0
32	5132409032	高剑飞	2014-2015	2	概率与计算	CS225	83	2.0
33	5132409032	高剑飞	2014-2015	2	体育（4）	PE004	84	1.0
34	5132409032	高剑飞	2014-2015	2	形势与政策	TH009	A-	1.0
35	5132409032	高剑飞	2014-2015	2	计算机系统课程设计（A类）	MS109	85	3.0
36	5132409032	高剑飞	2014-2015	2	实验室实践	EI335	85	3.0
37	5132409032	高剑飞	2014-2015	2	概率论	MS107	89	3.0
38	5132409032	高剑飞	2014-2015	2	自动机理论	MS205	90	2.0
39	5132409032	高剑飞	2015-2016	1	图论与组合	CS477	72	3.0
40	5132409032	高剑飞	2015-2016	1	计算机系统（2）	MS110	89	4.0
41	5132409032	高剑飞	2015-2016	1	计算复杂性	CS226	91	3.0
42	5132409032	高剑飞	2015-2016	1	专业研讨课（1）	MS113	97	2.0
43	5132409032	高剑飞	2015-2016	1	计算机系统课程设计（B类）	MS112	98	3.0